C:\Users\user\Desktop\lab2\lab\src\main\java\shop\controllers\ProductController.java
C:\Users\user\Desktop\lab2\lab\src\main\java\shop\Program.java
C:\Users\user\Desktop\lab2\lab\src\main\java\shop\model\repositories\CategoriesRepository.java
C:\Users\user\Desktop\lab2\lab\src\main\java\shop\model\entities\Category.java
C:\Users\user\Desktop\lab2\lab\src\main\java\shop\model\entities\Product.java
C:\Users\user\Desktop\lab2\lab\src\main\java\shop\model\repositories\ProductsRepository.java
C:\Users\user\Desktop\lab2\lab\src\main\java\shop\controllers\CatalogController.java
